-----------------
| 0 | 0 | 0 | 0 |
-----------------
| 3 | 2 | 3 | 1 |
-----------------
| 2 | 1 | 1 | 3 |
-----------------
| 1 | 2 | 3 | 2 |
-----------------

Rotate Left square 0.
-----------------
| 0 | 2 | 0 | 0 |
-----------------
| 0 | 3 | 3 | 1 |
-----------------
| 2 | 1 | 1 | 3 |
-----------------
| 1 | 2 | 3 | 2 |
-----------------

Rotate Left square 0.
-----------------
| 2 | 3 | 0 | 0 |
-----------------
| 0 | 0 | 3 | 1 |
-----------------
| 2 | 1 | 1 | 3 |
-----------------
| 1 | 2 | 3 | 2 |
-----------------

Rotate Left line 0.
-----------------
| 3 | 0 | 0 | 2 |
-----------------
| 0 | 0 | 3 | 1 |
-----------------
| 2 | 1 | 1 | 3 |
-----------------
| 1 | 2 | 3 | 2 |
-----------------

Rotate Left line 0.
-----------------
| 0 | 0 | 2 | 3 |
-----------------
| 0 | 0 | 3 | 1 |
-----------------
| 2 | 1 | 1 | 3 |
-----------------
| 1 | 2 | 3 | 2 |
-----------------
