Rotate Counter Clockwise square 0.
-----------------
| 0 | 1 | 1 | 0 |
-----------------
| 2 | 0 | 1 | 1 |
-----------------
| 2 | 2 | 3 | 3 |
-----------------
| 0 | 2 | 3 | 3 |
-----------------

Rotate Down column 0.
-----------------
| 0 | 1 | 1 | 0 |
-----------------
| 0 | 0 | 1 | 1 |
-----------------
| 2 | 2 | 3 | 3 |
-----------------
| 2 | 2 | 3 | 3 |
-----------------

Rotate Right line 0.
-----------------
| 0 | 0 | 1 | 1 |
-----------------
| 0 | 0 | 1 | 1 |
-----------------
| 2 | 2 | 3 | 3 |
-----------------
| 2 | 2 | 3 | 3 |
-----------------
